Project 1: Wrangling, Exploration, Visualization
…
The two data sets used in this project are the U.S. State Public School Expenditures dataset and the Violent Crime Rates by US State dataset. The common ID variable that they share is states. Other variables that are in the data sets include murder, assault, urbanpop, and rape in dataset 1 and education, income, young, and urban in dataset2. The variables were acquired by looking at per-capital values and by collecting data from populations of 1,000 or 100,000 people and creating a proportion from that. These data sets and variables were interesting for me because I wanted to know if there is a correlation between education/income and crime rates in America.

library(tidyverse)

data1 <- read_csv("https://vincentarelbundock.github.io/Rdatasets/csv/datasets/USArrests.csv")
data2 <- read_csv("https://vincentarelbundock.github.io/Rdatasets/csv/carData/Anscombe.csv")

Tidying: Reshaping

If your datasets are tidy already, demonstrate that you can reshape data with pivot wider/longer here (e.g., untidy and then retidy). Alternatively, it may be easier to wait until the wrangling section so you can reshape your summary statistics. Note here if you are going to do this.

data1

## # A tibble: 50 x 5
##    X1          Murder Assault UrbanPop  Rape
##    <chr>        <dbl>   <dbl>    <dbl> <dbl>
##  1 Alabama       13.2     236       58  21.2
##  2 Alaska        10       263       48  44.5
##  3 Arizona        8.1     294       80  31  
##  4 Arkansas       8.8     190       50  19.5
##  5 California     9       276       91  40.6
##  6 Colorado       7.9     204       78  38.7
##  7 Connecticut    3.3     110       77  11.1
##  8 Delaware       5.9     238       72  15.8
##  9 Florida       15.4     335       80  31.9
## 10 Georgia       17.4     211       60  25.8
## #  with 40 more rows

data2

## # A tibble: 51 x 5
##    X1    education income young urban
##    <chr>     <dbl>  <dbl> <dbl> <dbl>
##  1 ME          189   2824  351.   508
##  2 NH          169   3259  346.   564
##  3 VT          230   3072  348.   322
##  4 MA          168   3835  335.   846
##  5 RI          180   3549  327.   871
##  6 CT          193   4256  341    774
##  7 NY          261   4151  326.   856
##  8 NJ          214   3954  334.   889
##  9 PA          201   3419  326.   715
## 10 OH          172   3509  354.   753
## #  with 41 more rows

# UNTIDY
data1 <- data1 %>% pivot_wider(names_from = X1, values_from = Murder)
data2 <- data2 %>% pivot_wider(names_from = X1, values_from = education)

data1

## # A tibble: 50 x 53
##    Assault UrbanPop  Rape Alabama Alaska Arizona Arkansas California Colorado
##      <dbl>    <dbl> <dbl>   <dbl>  <dbl>   <dbl>    <dbl>      <dbl>    <dbl>
##  1     236       58  21.2    13.2     NA    NA       NA           NA     NA  
##  2     263       48  44.5    NA       10    NA       NA           NA     NA  
##  3     294       80  31      NA       NA     8.1     NA           NA     NA  
##  4     190       50  19.5    NA       NA    NA        8.8         NA     NA  
##  5     276       91  40.6    NA       NA    NA       NA            9     NA  
##  6     204       78  38.7    NA       NA    NA       NA           NA      7.9
##  7     110       77  11.1    NA       NA    NA       NA           NA     NA  
##  8     238       72  15.8    NA       NA    NA       NA           NA     NA  
##  9     335       80  31.9    NA       NA    NA       NA           NA     NA  
## 10     211       60  25.8    NA       NA    NA       NA           NA     NA  
## #  with 40 more rows, and 44 more variables: Connecticut <dbl>,
## #   Delaware <dbl>, Florida <dbl>, Georgia <dbl>, Hawaii <dbl>, Idaho <dbl>,
## #   Illinois <dbl>, Indiana <dbl>, Iowa <dbl>, Kansas <dbl>, Kentucky <dbl>,
## #   Louisiana <dbl>, Maine <dbl>, Maryland <dbl>, Massachusetts <dbl>,
## #   Michigan <dbl>, Minnesota <dbl>, Mississippi <dbl>, Missouri <dbl>,
## #   Montana <dbl>, Nebraska <dbl>, Nevada <dbl>, `New Hampshire` <dbl>, `New
## #   Jersey` <dbl>, `New Mexico` <dbl>, `New York` <dbl>, `North
## #   Carolina` <dbl>, `North Dakota` <dbl>, Ohio <dbl>, Oklahoma <dbl>,
## #   Oregon <dbl>, Pennsylvania <dbl>, `Rhode Island` <dbl>, `South
## #   Carolina` <dbl>, `South Dakota` <dbl>, Tennessee <dbl>, Texas <dbl>,
## #   Utah <dbl>, Vermont <dbl>, Virginia <dbl>, Washington <dbl>, `West
## #   Virginia` <dbl>, Wisconsin <dbl>, Wyoming <dbl>

data2

## # A tibble: 51 x 54
##    income young urban    ME    NH    VT    MA    RI    CT    NY    NJ    PA
##     <dbl> <dbl> <dbl> <dbl> <dbl> <dbl> <dbl> <dbl> <dbl> <dbl> <dbl> <dbl>
##  1   2824  351.   508   189    NA    NA    NA    NA    NA    NA    NA    NA
##  2   3259  346.   564    NA   169    NA    NA    NA    NA    NA    NA    NA
##  3   3072  348.   322    NA    NA   230    NA    NA    NA    NA    NA    NA
##  4   3835  335.   846    NA    NA    NA   168    NA    NA    NA    NA    NA
##  5   3549  327.   871    NA    NA    NA    NA   180    NA    NA    NA    NA
##  6   4256  341    774    NA    NA    NA    NA    NA   193    NA    NA    NA
##  7   4151  326.   856    NA    NA    NA    NA    NA    NA   261    NA    NA
##  8   3954  334.   889    NA    NA    NA    NA    NA    NA    NA   214    NA
##  9   3419  326.   715    NA    NA    NA    NA    NA    NA    NA    NA   201
## 10   3509  354.   753    NA    NA    NA    NA    NA    NA    NA    NA    NA
## #  with 41 more rows, and 42 more variables: OH <dbl>, IN <dbl>, IL <dbl>,
## #   MI <dbl>, WI <dbl>, MN <dbl>, IO <dbl>, MO <dbl>, ND <dbl>, SD <dbl>,
## #   NE <dbl>, KA <dbl>, DE <dbl>, MD <dbl>, DC <dbl>, VA <dbl>, WV <dbl>,
## #   NC <dbl>, SC <dbl>, GA <dbl>, FL <dbl>, KY <dbl>, TN <dbl>, AL <dbl>,
## #   MS <dbl>, AR <dbl>, LA <dbl>, OK <dbl>, TX <dbl>, MT <dbl>, ID <dbl>,
## #   WY <dbl>, CO <dbl>, NM <dbl>, AZ <dbl>, UT <dbl>, NV <dbl>, WA <dbl>,
## #   OR <dbl>, CA <dbl>, AK <dbl>, HI <dbl>

# TIDY
data1 <- data1 %>% pivot_longer(cols = Alabama:Wyoming, names_to = "X1", 
    values_to = "Murder", values_drop_na = TRUE)
data2 <- data2 %>% pivot_longer(cols = ME:HI, names_to = "X1", 
    values_to = "education", values_drop_na = TRUE)

data1

## # A tibble: 50 x 5
##    Assault UrbanPop  Rape X1          Murder
##      <dbl>    <dbl> <dbl> <chr>        <dbl>
##  1     236       58  21.2 Alabama       13.2
##  2     263       48  44.5 Alaska        10  
##  3     294       80  31   Arizona        8.1
##  4     190       50  19.5 Arkansas       8.8
##  5     276       91  40.6 California     9  
##  6     204       78  38.7 Colorado       7.9
##  7     110       77  11.1 Connecticut    3.3
##  8     238       72  15.8 Delaware       5.9
##  9     335       80  31.9 Florida       15.4
## 10     211       60  25.8 Georgia       17.4
## #  with 40 more rows

data2

## # A tibble: 51 x 5
##    income young urban X1    education
##     <dbl> <dbl> <dbl> <chr>     <dbl>
##  1   2824  351.   508 ME          189
##  2   3259  346.   564 NH          169
##  3   3072  348.   322 VT          230
##  4   3835  335.   846 MA          168
##  5   3549  327.   871 RI          180
##  6   4256  341    774 CT          193
##  7   4151  326.   856 NY          261
##  8   3954  334.   889 NJ          214
##  9   3419  326.   715 PA          201
## 10   3509  354.   753 OH          172
## #  with 41 more rows

data1 <- data1 %>% relocate(X1, .before = Assault)
data2 <- data2 %>% relocate(X1, .before = income)

data1

## # A tibble: 50 x 5
##    X1          Assault UrbanPop  Rape Murder
##    <chr>         <dbl>    <dbl> <dbl>  <dbl>
##  1 Alabama         236       58  21.2   13.2
##  2 Alaska          263       48  44.5   10  
##  3 Arizona         294       80  31      8.1
##  4 Arkansas        190       50  19.5    8.8
##  5 California      276       91  40.6    9  
##  6 Colorado        204       78  38.7    7.9
##  7 Connecticut     110       77  11.1    3.3
##  8 Delaware        238       72  15.8    5.9
##  9 Florida         335       80  31.9   15.4
## 10 Georgia         211       60  25.8   17.4
## #  with 40 more rows

data2

## # A tibble: 51 x 5
##    X1    income young urban education
##    <chr>  <dbl> <dbl> <dbl>     <dbl>
##  1 ME      2824  351.   508       189
##  2 NH      3259  346.   564       169
##  3 VT      3072  348.   322       230
##  4 MA      3835  335.   846       168
##  5 RI      3549  327.   871       180
##  6 CT      4256  341    774       193
##  7 NY      4151  326.   856       261
##  8 NJ      3954  334.   889       214
##  9 PA      3419  326.   715       201
## 10 OH      3509  354.   753       172
## #  with 41 more rows
…
data2 <- data2 %>% arrange(data2)
data2

## # A tibble: 51 x 5
##    X1          income young urban education
##    <chr>        <dbl> <dbl> <dbl>     <dbl>
##  1 Alabama       3259  346.   564       169
##  2 Alaska        2824  351.   508       189
##  3 Arizona       3835  335.   846       168
##  4 Arkansas      3072  348.   322       230
##  5 California    3549  327.   871       180
##  6 Colorado      4256  341    774       193
##  7 Connecticut   4151  326.   856       261
##  8 Delaware      3954  334.   889       214
##  9 Florida       3419  326.   715       201
## 10 Georgia       3509  354.   753       172
## #  with 41 more rows

data3 <- full_join(data1, data2)
data3

## # A tibble: 51 x 9
##    X1          Assault UrbanPop  Rape Murder income young urban education
##    <chr>         <dbl>    <dbl> <dbl>  <dbl>  <dbl> <dbl> <dbl>     <dbl>
##  1 Alabama         236       58  21.2   13.2   3259  346.   564       169
##  2 Alaska          263       48  44.5   10     2824  351.   508       189
##  3 Arizona         294       80  31      8.1   3835  335.   846       168
##  4 Arkansas        190       50  19.5    8.8   3072  348.   322       230
##  5 California      276       91  40.6    9     3549  327.   871       180
##  6 Colorado        204       78  38.7    7.9   4256  341    774       193
##  7 Connecticut     110       77  11.1    3.3   4151  326.   856       261
##  8 Delaware        238       72  15.8    5.9   3954  334.   889       214
##  9 Florida         335       80  31.9   15.4   3419  326.   715       201
## 10 Georgia         211       60  25.8   17.4   3509  354.   753       172
## #  with 41 more rows

# data1 <- data1 %>% rename(States = X1) data2 <- data2 %>%
# rename(States = X1)
data1

## # A tibble: 50 x 5
##    X1          Assault UrbanPop  Rape Murder
##    <chr>         <dbl>    <dbl> <dbl>  <dbl>
##  1 Alabama         236       58  21.2   13.2
##  2 Alaska          263       48  44.5   10  
##  3 Arizona         294       80  31      8.1
##  4 Arkansas        190       50  19.5    8.8
##  5 California      276       91  40.6    9  
##  6 Colorado        204       78  38.7    7.9
##  7 Connecticut     110       77  11.1    3.3
##  8 Delaware        238       72  15.8    5.9
##  9 Florida         335       80  31.9   15.4
## 10 Georgia         211       60  25.8   17.4
## #  with 40 more rows

data2

## # A tibble: 51 x 5
##    X1          income young urban education
##    <chr>        <dbl> <dbl> <dbl>     <dbl>
##  1 Alabama       3259  346.   564       169
##  2 Alaska        2824  351.   508       189
##  3 Arizona       3835  335.   846       168
##  4 Arkansas      3072  348.   322       230
##  5 California    3549  327.   871       180
##  6 Colorado      4256  341    774       193
##  7 Connecticut   4151  326.   856       261
##  8 Delaware      3954  334.   889       214
##  9 Florida       3419  326.   715       201
## 10 Georgia       3509  354.   753       172
## #  with 41 more rows
…
colnames(data1)

## [1] "X1"       "Assault"  "UrbanPop" "Rape"     "Murder"

colnames(data2)

## [1] "X1"        "income"    "young"     "urban"     "education"

Datasets 1 and 2 were full joined. I used full join because both datasets have the same matching rows so it would make no difference and thus be of no use to do inner, left, or right join. There are 50 observations/rows in each dataset. The ID that the datasets have in common is states. The unique IDs in dataset 1 that are not in dataset 2 are murder, assault, urbanpop, and rape. The other IDs are unique to dataset 2, and they are education, income, young, and urban. The size of the joined dataset is larger than the individual datasets. It has 9 variables/columns while the individual datasets had 5 columns/variables each. There were no observations dropped, and so there is also no problem associated with it.

Wrangling

data3 %>% arrange(income)

## # A tibble: 51 x 9
##    X1             Assault UrbanPop  Rape Murder income young urban education
##    <chr>            <dbl>    <dbl> <dbl>  <dbl>  <dbl> <dbl> <dbl>     <dbl>
##  1 New York           254       86  26.1   11.1   2081  385.   445       130
##  2 Ohio               120       75  21.4    7.3   2322  352.   500       134
##  3 Nevada             252       81  46     12.2   2337  362.   584       112
##  4 North Dakota        45       44   7.3    0.8   2380  377.   476       149
##  5 Montana            109       53  16.4    6     2470  329.   390       149
##  6 New Mexico         285       70  32.1   11.4   2579  343.   588       137
##  7 Oklahoma           151       68  20      6.6   2634  390.   661       162
##  8 New Jersey         159       89  18.8    7.4   2645  349.   523       140
##  9 Texas              201       80  25.5   12.7   2651  422.   698       227
## 10 North Carolina     337       45  16.1   13     2664  354.   450       155
## #  with 41 more rows

data3 %>% filter(str_detect(Rape, "17.4"))

## # A tibble: 0 x 9
## #  with 9 variables: X1 <chr>, Assault <dbl>, UrbanPop <dbl>, Rape <dbl>,
## #   Murder <dbl>, income <dbl>, young <dbl>, urban <dbl>, education <dbl>

data3 %>% filter(urban >= 500)

## # A tibble: 43 x 9
##    X1          Assault UrbanPop  Rape Murder income young urban education
##    <chr>         <dbl>    <dbl> <dbl>  <dbl>  <dbl> <dbl> <dbl>     <dbl>
##  1 Alabama         236       58  21.2   13.2   3259  346.   564       169
##  2 Alaska          263       48  44.5   10     2824  351.   508       189
##  3 Arizona         294       80  31      8.1   3835  335.   846       168
##  4 California      276       91  40.6    9     3549  327.   871       180
##  5 Colorado        204       78  38.7    7.9   4256  341    774       193
##  6 Connecticut     110       77  11.1    3.3   4151  326.   856       261
##  7 Delaware        238       72  15.8    5.9   3954  334.   889       214
##  8 Florida         335       80  31.9   15.4   3419  326.   715       201
##  9 Georgia         211       60  25.8   17.4   3509  354.   753       172
## 10 Hawaii           46       83  20.2    5.3   3412  359.   649       194
## #  with 33 more rows

data3 %>% select(X1, Murder, income)

## # A tibble: 51 x 3
##    X1          Murder income
##    <chr>        <dbl>  <dbl>
##  1 Alabama       13.2   3259
##  2 Alaska        10     2824
##  3 Arizona        8.1   3835
##  4 Arkansas       8.8   3072
##  5 California     9     3549
##  6 Colorado       7.9   4256
##  7 Connecticut    3.3   4151
##  8 Delaware       5.9   3954
##  9 Florida       15.4   3419
## 10 Georgia       17.4   3509
## #  with 41 more rows

data3 %>% mutate(ratio = Murder/income)

## # A tibble: 51 x 10
##    X1         Assault UrbanPop  Rape Murder income young urban education   ratio
##    <chr>        <dbl>    <dbl> <dbl>  <dbl>  <dbl> <dbl> <dbl>     <dbl>   <dbl>
##  1 Alabama        236       58  21.2   13.2   3259  346.   564       169 4.05e-3
##  2 Alaska         263       48  44.5   10     2824  351.   508       189 3.54e-3
##  3 Arizona        294       80  31      8.1   3835  335.   846       168 2.11e-3
##  4 Arkansas       190       50  19.5    8.8   3072  348.   322       230 2.86e-3
##  5 California     276       91  40.6    9     3549  327.   871       180 2.54e-3
##  6 Colorado       204       78  38.7    7.9   4256  341    774       193 1.86e-3
##  7 Connectic     110       77  11.1    3.3   4151  326.   856       261 7.95e-4
##  8 Delaware       238       72  15.8    5.9   3954  334.   889       214 1.49e-3
##  9 Florida        335       80  31.9   15.4   3419  326.   715       201 4.50e-3
## 10 Georgia        211       60  25.8   17.4   3509  354.   753       172 4.96e-3
## #  with 41 more rows

data3$lh_UrbanPop <- as.factor(ifelse(data3$UrbanPop < 50, "low", 
    "high"))
data3

## # A tibble: 51 x 10
##    X1     Assault UrbanPop  Rape Murder income young urban education lh_UrbanPop
##    <chr>    <dbl>    <dbl> <dbl>  <dbl>  <dbl> <dbl> <dbl>     <dbl> <fct>      
##  1 Alaba     236       58  21.2   13.2   3259  346.   564       169 high       
##  2 Alaska     263       48  44.5   10     2824  351.   508       189 low        
##  3 Arizo     294       80  31      8.1   3835  335.   846       168 high       
##  4 Arkan     190       50  19.5    8.8   3072  348.   322       230 high       
##  5 Calif     276       91  40.6    9     3549  327.   871       180 high       
##  6 Color     204       78  38.7    7.9   4256  341    774       193 high       
##  7 Conne     110       77  11.1    3.3   4151  326.   856       261 high       
##  8 Delaw     238       72  15.8    5.9   3954  334.   889       214 high       
##  9 Flori     335       80  31.9   15.4   3419  326.   715       201 high       
## 10 Georg     211       60  25.8   17.4   3509  354.   753       172 high       
## #  with 41 more rows
…
